id,class
10001,3
10002,4
10004,5
10008,20
10009,13
10010,13
10011,9
10015,4
10023,5
10027,3
10032,16
10034,9
10035,4
10040,9
10041,17
10043,15
10044,19
10045,5
10048,7
10051,18
10057,17
10060,18
10061,12
10063,7
10068,16
10069,18
10073,8
10080,4
10083,16
10084,3
10089,16
10093,6
10095,10
10097,1
10099,4
10102,3
10104,6
10105,20
10107,13
10115,1
10116,5
10118,10
10123,3
10126,3
10127,7
10129,3
10130,18
10131,18
10134,10
10136,20
10137,17
10139,13
10141,7
10147,15
10148,3
10149,12
10151,16
10152,16
10156,8
10157,17
10158,15
10160,4
10162,17
10167,13
10171,9
10175,13
10177,20
10180,8
10182,4
10184,4
10190,8
10194,20
10195,16
10197,9
10198,12
10202,8
10203,5
10204,11
10209,18
10210,9
10223,17
10226,5
10232,17
10235,5
10236,11
10237,19
10241,19
10242,12
10244,5
10246,17
10247,17
10248,16
10250,11
10251,5
10256,11
10259,1
10260,10
10261,5
10263,13
10264,11
10265,5
10267,16
10269,12
10273,20
10276,14
10285,17
10287,3
10291,17
10296,16
10300,13
10301,13
10304,5
10305,2
10309,5
10310,5
10320,11
10322,12
10323,3
10324,11
10325,10
10329,9
10336,13
10337,20
10338,15
10341,9
10351,5
10352,16
10354,18
10357,17
10358,19
10359,20
10361,1
10364,12
10366,11
10369,2
10370,10
10374,2
10375,5
10377,11
10381,18
10382,8
10384,2
10389,6
10390,19
10392,9
10394,12
10402,20
10404,4
10406,19
10409,4
10410,10
10412,13
10414,16
10417,10
10418,14
10420,14
10423,10
10426,5
10427,7
10434,5
10435,16
10441,20
10452,12
10453,5
10461,3
10462,7
10466,5
10467,15
10468,19
10472,2
10476,3
10480,18
10484,12
10485,2
10488,12
10489,5
10493,10
10494,15
10497,20
10498,14
10500,1
10507,19
10511,9
10519,4
10521,14
10524,2
10526,10
10530,17
10535,4
10536,17
10538,6
10539,15
10552,18
10554,14
10556,18
10558,4
10560,13
10564,9
10566,18
10569,7
10570,17
10571,5
10575,9
10577,10
10583,20
10584,14
10585,4
10589,14
10592,20
10594,17
10595,19
10596,18
10601,9
10606,19
10607,18
10613,20
10615,20
10618,9
10621,9
10626,16
10628,15
10629,4
10633,5
10634,3
10638,5
10642,18
10643,13
10644,5
10646,17
10647,15
10653,17
10655,3
10656,11
10657,5
10666,6
10668,6
10669,16
10670,3
10671,7
10676,2
10679,12
10682,11
10684,12
10685,11
10686,19
10687,7
10688,16
10691,5
10693,7
10700,6
10704,19
10705,3
10707,5
10711,17
10716,10
10717,2
10718,1
10719,3
10725,12
10729,13
10730,18
10732,12
10736,17
10737,18
10738,19
10739,8
10744,14
10749,3
10750,11
10751,13
10753,5
10755,10
10756,20
10757,2
10759,7
10760,19
10761,13
10763,11
10767,8
10768,13
10770,6
10772,6
10774,2
10776,10
10777,10
10778,6
10779,20
10783,13
10784,18
10786,8
10795,2
10798,11
10803,2
10806,6
10807,4
10812,20
10814,20
10816,19
10819,11
10821,5
10825,20
10827,14
10832,19
10833,17
10837,15
10838,13
10839,18
10840,6
10842,12
10847,5
10852,11
10854,1
10856,15
10859,13
10861,12
10862,17
10863,10
10865,6
10866,18
10868,20
10870,3
10873,18
10874,3
10875,17
10881,19
10883,12
10885,2
10886,10
10887,13
10888,11
10890,11
10891,13
10892,2
10894,1
10896,11
10900,10
10905,20
10908,18
10910,18
10917,16
10920,6
10926,4
10938,7
10943,14
10946,2
10950,13
10952,10
10953,3
10957,16
10958,10
10959,15
10962,13
10965,1
10966,20
10967,20
10970,11
10972,6
10974,17
10979,15
10980,10
10986,6
10988,8
10989,13
10990,20
10996,18
10997,9
10999,10
11003,16
11006,6
11015,5
11016,7
11022,4
11023,6
11025,16
11030,5
11032,1
11037,18
11039,11
11048,11
11051,17
11052,10
11054,10
11055,6
11059,5
11061,16
11066,1
11069,2
11073,2
11075,13
11080,14
11085,17
11091,15
11096,5
11100,7
11101,10
11103,13
11104,3
11107,5
11108,14
11122,19
11124,4
11125,3
11126,5
11132,8
11134,10
11136,10
11141,20
11144,20
11145,3
11152,16
11154,20
11156,7
11159,18
11162,11
11165,4
11166,12
11170,5
11172,18
11175,7
11177,13
11179,11
11181,14
11187,18
11188,1
11189,5
11191,10
11197,7
11201,5
11203,18
11206,20
11207,18
11210,15
11214,10
11223,20
11225,2
11226,12
11228,7
11229,7
11233,5
11236,4
11237,17
11238,6
11240,10
11242,10
11246,8
11249,13
11251,13
11254,16
11263,16
11265,18
11269,18
11272,20
11274,2
11277,3
11281,18
11282,2
11284,10
11285,15
11286,17
11289,9
11291,15
11293,7
11294,6
11298,2
11302,20
11307,4
11311,15
11312,7
11315,14
11316,2
11317,5
11318,16
11322,12
11329,1
11330,7
11332,16
11333,6
11335,15
11337,7
11338,8
11342,7
11343,17
11352,10
11353,13
11354,17
11355,1
11357,11
11358,12
11359,1
11360,7
11361,10
11362,2
11365,19
11366,16
11367,5
11372,5
11374,10
11376,2
11381,14
11382,17
11388,6
11392,9
11393,14
11394,3
11397,18
11400,16
11401,18
11404,11
11411,3
11415,7
11416,1
11417,5
11418,12
11419,11
11424,17
11427,11
11430,5
11432,7
11435,8
11436,2
11439,14
11440,9
11442,10
11445,3
11447,6
11450,5
11452,3
11457,15
11458,20
11459,1
11462,5
11463,18
11464,1
11465,18
11470,12
11472,11
11474,2
11476,9
11482,20
11484,5
11491,13
11492,19
11494,14
11500,7
11504,10
11508,5
11512,19
11513,12
11517,18
11520,3
11522,3
11530,20
11533,9
11540,10
11543,11
11545,6
11546,2
11550,7
11551,9
11554,15
11556,6
11562,8
11566,9
11574,18
11575,19
11576,11
11578,16
11579,7
11591,13
11593,7
11594,5
11595,19
11597,11
11604,15
11606,13
11610,12
11612,13
11613,2
11614,13
11615,10
11617,14
11621,15
11624,7
11629,6
11634,8
11642,4
11643,19
11647,9
11650,6
11651,17
11657,2
11659,16
11667,5
11673,18
11675,17
11678,19
11680,3
11681,17
11683,18
11684,18
11685,5
11688,17
11691,6
11693,4
11694,6
11695,1
11697,3
11700,5
11704,9
11705,2
11712,12
11713,1
11716,14
11719,11
11723,17
11726,2
11732,11
11733,10
11737,20
11739,11
11748,2
11750,2
11756,19
11759,5
11764,10
11766,4
11767,16
11769,20
11775,13
11777,6
11778,9
11779,13
11783,18
11786,16
11787,7
11789,7
11792,7
11795,2
11796,6
11798,12
11820,15
11821,5
11823,10
11824,19
11834,5
11835,3
11839,7
11841,2
11842,18
11844,1
11846,20
11847,5
11849,17
11851,4
11852,17
11856,13
11857,17
11859,2
11860,10
11866,3
11867,18
11868,19
11872,1
11875,11
11883,5
11887,19
11888,16
11891,6
11895,5
11898,18
11903,15
11904,14
11912,4
11913,19
11916,19
11920,5
11921,13
11923,13
11924,9
11925,20
11926,4
11927,8
11935,15
11939,4
11941,4
11942,12
11944,11
11945,4
11946,20
11947,17
11948,4
11949,16
11950,7
11952,4
11953,10
11954,5
11961,17
11962,6
11963,10
11964,10
11965,18
11966,15
11971,11
11974,2
11982,9
11984,20
11985,1
11986,19
11987,12
11988,10
11990,15
11991,1
11992,15
11993,4
11996,7
11998,20
11999,11
12001,2
12002,5
12004,20
12008,20
12009,11
12011,12
12018,9
12020,3
12021,6
12024,2
12029,15
12030,15
12035,5
12038,5
12039,1
12049,4
12052,6
12053,15
12054,13
12058,4
12062,1
12064,3
12072,15
12074,5
12081,6
12082,16
12087,10
12089,5
12091,6
12093,16
12094,20
12095,14
12099,16
12100,2
12101,1
12102,19
12105,6
12106,12
12112,20
12114,12
12121,3
12124,8
12127,9
12129,9
12130,2
12132,20
12133,17
12149,17
12152,15
12156,8
12157,16
12158,20
12159,17
12160,6
12161,8
12166,5
12170,12
12171,3
12172,8
12175,16
12176,16
12179,4
12184,2
12188,5
12190,3
12196,11
12197,13
12198,18
12201,15
12203,12
12205,2
12206,10
12208,4
12209,19
12211,17
12215,10
12217,10
12218,4
12219,16
12224,16
12227,2
12231,4
12233,18
12234,2
12237,2
12240,8
12242,9
12243,7
12248,20
12251,5
12268,1
12280,5
12282,3
12286,7
12287,13
12289,9
12290,17
12294,7
12299,10
12301,11
12302,5
12306,16
12308,20
12311,9
12318,16
12323,6
12326,6
12329,16
12334,14
12336,15
12337,18
12339,5
12340,7
12342,4
12343,5
12344,11
12348,13
12359,19
12361,4
12362,10
12363,5
12365,20
12368,16
12374,19
12375,13
12377,11
12378,11
12380,16
12387,8
12388,13
12389,11
12390,5
12397,12
12398,18
12401,19
12404,1
12405,18
12408,4
12409,16
12410,14
12412,9
12413,5
12414,18
12416,10
12417,16
12420,13
12421,3
12428,19
12433,13
12440,11
12441,11
12444,18
12445,17
12447,2
12448,9
12450,19
12452,20
12454,14
12457,5
12461,7
12464,11
12465,11
12467,7
12469,17
12471,12
12472,5
12473,5
12475,10
12476,3
12479,10
12483,3
12487,9
12490,9
12493,7
12495,16
12496,20
12499,17
12504,3
12507,14
12510,19
12512,7
12513,4
12514,19
12520,9
12521,5
12526,3
12531,5
12532,2
12533,17
12537,15
12540,12
12543,13
12544,2
12549,3
12550,14
12553,5
12559,8
12560,20
12562,3
12565,14
12571,10
12573,5
12583,2
12585,7
12586,16
12594,17
12596,13
12598,20
12602,18
12606,12
12610,14
12615,13
12618,17
12621,18
12623,20
12624,7
12629,20
12631,13
12632,14
12640,12
12641,1
12642,7
12645,17
12646,6
12648,19
12650,1
12664,6
12665,10
12666,10
12669,11
12670,6
12671,20
12673,5
12675,2
12676,14
12677,17
12679,2
12680,13
12682,2
12686,12
12691,15
12696,11
12698,6
12703,7
12709,10
12710,16
12714,15
12717,12
12719,10
12720,10
12722,2
12725,8
12726,16
12729,9
12731,18
12733,19
12734,20
12736,11
12737,12
12738,19
12739,18
12743,8
12744,2
12746,1
12748,5
12749,11
12751,11
12752,17
12753,11
12754,4
12756,12
12762,20
12764,9
12765,5
12770,9
12771,3
12773,2
12779,3
12787,18
12788,20
12790,5
12791,8
12792,16
12795,14
12798,20
12800,5
12807,7
12809,5
12810,10
12812,1
12815,18
12816,12
12822,10
12823,16
12829,4
12830,6
12832,13
12833,11
12836,1
12837,4
12839,1
12843,6
12846,1
12847,2
12849,18
12853,2
12859,19
12861,19
12865,14
12866,19
12867,10
12869,16
12872,1
12873,8
12877,16
12878,2
12879,17
12882,20
12883,8
12885,7
12887,14
12888,10
12889,10
12890,20
12906,7
12907,5
12910,10
12914,19
12916,11
12917,6
12919,14
12920,19
12925,9
12929,9
12934,18
12938,18
12940,7
12941,2
12943,15
12944,20
12948,11
12950,16
12960,7
12962,20
12963,7
12964,11
12966,15
12967,9
12969,13
12970,5
12973,2
12975,4
12977,10
12981,12
12983,7
12984,10
12985,9
12994,1
13000,13
13001,5
13005,4
13006,6
13007,16
13008,19
13010,3
13011,11
13013,19
13014,17
13017,5
13022,17
13023,18
13032,3
13033,16
13034,2
13035,3
13036,18
13037,4
13045,6
13049,12
13050,6
13051,11
13058,3
13063,14
13065,5
13067,3
13068,19
13069,5
13072,5
13074,6
13075,13
13076,14
13079,12
13081,4
13090,1
13092,7
13096,6
13097,19
13099,7
13106,5
13108,3
13116,7
13117,3
13119,10
13123,19
13129,16
13136,9
13137,14
13138,1
13139,15
13143,19
13145,20
13146,10
13147,1
13149,19
13153,10
13154,16
13157,18
13160,8
13163,9
13168,17
13169,2
13171,11
13172,14
13176,17
13186,18
13190,18
13194,8
13196,11
13198,4
13200,3
13205,3
13209,7
13215,4
13217,15
13220,10
13223,5
13225,20
13226,17
13227,4
13228,4
13233,12
13235,2
13236,2
13237,5
13238,7
13243,3
13244,17
13251,5
13253,11
13257,2
13258,20
13259,18
13263,6
13266,13
13272,4
13275,2
13278,5
13281,8
13284,10
13288,11
13292,17
13295,8
13296,7
13300,13
13306,18
13307,12
13314,7
13315,17
13318,14
13319,5
13323,20
13325,4
13327,2
13328,9
13331,1
13335,5
13337,2
13339,12
13340,16
13349,9
13352,7
13355,20
13361,18
13362,2
13366,11
13376,19
13381,17
13383,6
13384,18
13385,1
13388,7
13390,1
13392,17
13393,16
13394,19
13398,14
13401,2
13402,12
13404,5
13405,8
13408,9
13414,12
13415,16
13416,5
13417,17
13418,17
13432,8
13433,18
13434,7
13435,1
13440,14
13443,4
13445,2
13446,6
13448,11
13451,7
13453,13
13455,7
13456,19
13457,20
13459,20
13464,8
13468,19
13469,3
13472,16
13473,16
13479,7
13480,10
13484,5
13485,13
13486,13
13488,12
13490,17
13493,6
13494,8
13499,9
13500,15
13501,13
13506,5
13510,5
13511,14
13516,9
13518,9
13523,11
13526,16
13531,19
13534,12
13536,5
13538,13
13541,16
13543,3
13544,1
13545,13
13548,5
13549,12
13550,19
13551,19
13553,14
13560,13
13561,10
13562,10
13567,19
13569,13
13570,12
13572,5
13573,17
13578,19
13580,4
13584,1
13585,15
13586,12
13588,10
13591,20
13593,19
13594,20
13596,20
13597,13
13600,3
13602,7
13605,2
13612,2
13615,5
13616,16
13618,5
13620,8
13621,4
13630,17
13633,20
13638,13
13639,17
13640,8
13646,7
13651,18
13654,7
13655,17
13657,14
13659,13
13660,13
13667,10
13669,1
13670,16
13673,17
13675,13
13678,20
13681,9
13683,15
13685,8
13686,18
13690,5
13700,3
13704,18
13706,2
13708,14
13711,2
13717,7
13718,5
13720,10
13722,20
13724,3
13725,13
13726,5
13731,16
13733,16
13737,15
13738,14
13739,1
13743,13
13744,7
13747,2
13748,13
13751,17
13752,7
13754,13
13755,13
13762,6
13768,11
13769,10
13771,16
13781,5
13782,14
13784,18
13792,11
13794,20
13800,7
13803,3
13808,10
13809,20
13811,19
13814,5
13816,2
13817,5
13824,11
13825,3
13827,6
13829,18
13836,20
13837,2
13840,2
13845,11
13849,1
13851,10
13852,7
13858,4
13865,18
13866,13
13867,17
13874,20
13882,13
13883,6
13888,9
13891,9
13894,20
13896,5
13898,3
13905,1
13906,9
13909,11
13910,1
13912,18
13913,18
13917,18
13920,13
13921,13
13922,20
13923,3
13928,6
13931,11
13933,3
13934,13
13939,20
13941,17
13943,12
13946,6
13951,18
13954,2
13956,16
13960,18
13961,19
13963,6
13967,19
13969,10
13970,5
13971,19
13973,5
13974,15
13975,17
13976,11
13983,12
13984,8
13985,7
13988,3
13989,5
13991,16
13992,12
13998,5
14004,12
14008,5
14009,10
14010,17
14012,3
14014,11
14018,4
14024,7
14028,15
14029,12
14035,5
14049,9
14050,16
14053,6
14054,10
14055,17
14057,6
14061,4
14063,5
14066,11
14067,10
14071,9
14076,10
14077,17
14081,3
14083,17
14084,17
14086,15
14098,3
14101,3
14102,18
14105,13
14107,4
14111,15
14112,18
14113,16
14114,11
14121,12
14125,7
14131,5
14133,7
14139,20
14140,12
14144,11
14146,12
14147,5
14150,19
14152,2
14154,20
14155,6
14158,11
14160,19
14162,19
14163,16
14166,9
14167,11
14171,10
14172,16
14173,11
14184,4
14185,4
14187,19
14188,8
14190,7
14193,11
14195,19
14196,1
14197,3
14200,16
14206,2
14207,5
14208,15
14209,4
14210,10
14214,9
14215,12
14220,15
14222,10
14224,3
14226,2
14229,1
14230,18
14232,7
14233,20
14234,8
14236,7
14241,14
14244,17
14245,17
14246,7
14247,5
14250,7
14251,20
14255,10
14261,7
14262,20
14263,6
14264,18
14269,7
14271,5
14278,12
14279,2
14282,12
14283,17
14284,17
14285,3
14292,17
14294,14
14295,2
14298,7
14299,16
14300,5
14303,9
14304,19
14305,10
14308,16
14311,2
14312,13
14315,9
14318,19
14321,7
14327,2
14330,8
14332,13
14337,13
14340,17
14341,14
14342,11
14345,9
14350,10
14351,12
14352,11
14354,9
14355,4
14357,18
14359,7
14361,10
14363,2
14369,2
14370,17
14373,7
14376,12
14377,10
14378,10
14379,9
14381,19
14385,18
14388,14
14389,1
14390,11
14391,2
14396,2
14399,11
14400,3
14401,18
14404,4
14408,16
14410,6
14425,18
14426,18
14430,20
14431,3
14436,18
14443,1
14445,11
14447,20
14450,17
14452,3
14454,14
14457,5
14458,13
14459,6
14462,9
14463,14
14468,3
14469,13
14471,12
14472,17
14474,3
14476,13
14477,8
14480,9
14482,13
14486,12
14488,6
14489,16
14490,2
14494,5
14504,7
14511,19
14512,7
14513,14
14517,2
14529,13
14532,17
14534,9
14535,1
14536,14
14538,5
14539,18
14540,5
14543,10
14545,20
14547,10
14552,2
14553,15
14555,11
14556,10
14562,9
14563,9
14564,17
14567,2
14572,3
14574,10
14575,20
14585,19
14586,2
14594,9
14597,10
14608,6
14609,7
14615,16
14616,16
14619,20
14620,5
14625,3
14629,3
14631,12
14632,13
14633,5
14635,19
14642,4
14644,13
14646,14
14652,10
14654,10
14655,13
14658,18
14659,19
14662,5
14665,1
14667,2
14669,18
14673,11
14676,19
14677,4
14679,16
14680,11
14681,17
14682,10
14684,5
14685,9
14686,5
14687,18
14688,14
14697,17
14698,14
14699,3
14700,4
14706,12
14707,9
14708,11
14709,9
14716,10
14717,9
14718,10
14721,2
14723,7
14724,15
14728,11
14731,9
14732,13
14734,10
14738,18
14743,9
14745,19
14749,8
14750,19
14751,8
14753,2
14759,10
14760,7
14762,11
14763,4
14766,1
14768,13
14770,12
14771,17
14772,1
14777,6
14779,20
14781,5
14785,13
14786,6
14787,18
14790,7
14792,7
14795,12
14798,20
14800,3
14801,17
14803,16
14812,5
14817,2
14825,4
14828,14
14830,14
14831,5
14840,19
14842,10
14843,5
14845,18
14846,9
14847,12
14848,16
14849,5
14851,6
14852,2
14854,16
14855,2
14856,5
14857,5
14859,4
14861,7
14864,5
14865,7
14872,15
14875,1
14876,10
14878,7
14883,5
14887,6
14890,9
14891,11
14893,13
14895,3
14896,19
14899,7
14903,3
14904,13
14905,16
14907,17
14909,2
14910,5
14911,11
14912,12
14914,14
14919,14
14920,20
14921,20
14922,20
14926,1
14931,4
14933,4
14934,14
14937,18
14939,17
14949,16
14952,2
14954,19
14957,19
14958,13
14959,4
14960,10
14961,13
14971,4
14973,10
14975,3
14976,13
14979,16
14980,5
14981,17
14982,17
14984,5
14986,17
14987,7
14991,7
14993,13
14996,18
14997,2
14998,20
14999,19
15000,9
15002,20
15005,20
15013,17
15014,5
15017,5
15019,6
15020,12
15021,1
15031,2
15036,18
15039,9
15040,4
15050,4
15053,11
15056,12
15057,11
15061,16
15062,7
15063,1
15064,7
15066,10
15067,3
15068,15
15072,15
15075,8
15079,10
15081,4
15083,18
15089,6
15090,15
15091,18
15096,5
15097,18
15102,17
15105,7
15107,10
15108,1
15109,3
15111,3
15113,5
15119,4
15120,19
15121,8
15122,5
15123,7
15124,19
15126,15
15127,20
15129,14
15140,16
15142,1
15144,5
15145,2
15147,12
15149,2
15152,2
15156,8
15157,5
15158,5
15160,18
15162,12
15164,17
15169,7
15172,17
15173,7
15175,10
15181,7
15184,9
15185,4
15187,18
15189,7
15191,12
15192,11
15194,6
15195,19
15197,10
15199,2
15202,17
15207,13
15209,5
15211,10
15214,19
15217,6
15223,3
15224,11
15226,9
15227,5
15228,5
15229,5
15236,18
15243,7
15245,11
15247,19
15252,6
15254,1
15257,16
15258,5
15266,9
15269,10
15276,19
15278,16
15282,8
15285,4
15286,14
15293,13
15304,4
15307,9
15314,20
15315,17
15321,11
15324,9
15325,2
15327,20
15335,4
15345,10
15347,10
15348,10
15353,2
15354,3
15357,17
15361,4
15367,18
15368,11
15369,7
15372,12
15382,13
15383,17
15387,6
15390,18
15393,19
15394,2
15396,17
15397,7
15398,8
15400,17
15403,18
15408,11
15413,5
15418,16
15419,13
15420,14
15421,2
15433,20
15434,17
15435,12
15443,18
15444,6
15446,10
15447,7
15449,19
15450,20
15451,7
15455,9
15456,8
15461,6
15463,12
15464,4
15471,9
15473,6
15475,4
15477,11
15480,18
15481,3
15483,17
15484,2
15486,6
15489,5
15490,5
15503,10
15505,11
15506,10
15512,7
15515,9
15517,12
15518,11
15520,2
15521,19
15524,19
15525,10
15526,5
15528,9
15531,3
15534,18
15536,12
15538,1
15540,16
15545,4
15549,7
15556,1
15558,2
15559,9
15561,6
15562,5
15563,16
15570,11
15573,13
15574,9
15577,3
15578,16
15579,5
15581,6
15586,5
15589,9
15592,18
15594,18
15595,5
15596,13
15598,18
15599,2
15600,4
15607,20
15610,12
15612,17
15616,14
15617,5
15620,8
15621,13
15622,6
15627,10
15628,3
15630,5
15634,7
15635,14
15637,20
15641,19
15644,17
15647,20
15648,20
15650,10
15653,1
15654,5
15655,8
15658,11
15660,16
15664,4
15665,7
15666,9
15669,11
15670,19
15674,5
15676,6
15677,15
15678,19
15686,18
15693,4
15694,9
15705,3
15710,12
15712,10
15717,12
15719,19
15720,17
15724,18
15729,10
15731,3
15732,16
15733,4
15735,2
15738,5
15739,1
15740,3
15741,9
15743,13
15745,10
15748,17
15751,9
15752,16
15756,6
15759,6
15761,11
15764,10
15766,11
15773,11
15775,10
15776,13
15778,20
15779,11
15784,20
15790,5
15792,7
15794,4
15797,11
15799,4
15802,12
15803,12
15804,2
15805,2
15811,16
15816,4
15818,20
15820,6
15823,2
15824,8
15827,18
15829,1
15831,17
15833,20
15834,5
15836,10
15838,14
15840,4
15841,3
15844,7
15848,11
15849,18
15850,19
15853,11
15856,6
15858,1
15859,7
15862,18
15867,19
15870,3
15877,1
15883,9
15884,3
15885,1
15888,12
15889,15
15895,10
15897,3
15904,5
15905,15
15906,7
15908,1
15917,10
15920,11
15921,6
15923,12
15924,18
15929,18
15935,3
15939,10
15940,12
15943,9
15944,15
15949,4
15958,14
15962,10
15965,7
15968,16
15969,7
15970,5
15975,3
15976,2
15993,11
15995,9
15998,5
16000,16
16001,6
16003,8
16005,19
16008,3
16015,10
16017,3
16018,18
16019,16
16020,16
16023,8
16030,10
16036,9
16038,4
16039,11
16041,14
16046,2
16047,2
16050,1
16056,9
16057,6
16060,2
16064,12
16065,18
16070,4
16071,11
16072,16
16073,4
16074,5
16076,13
16079,5
16085,16
16090,1
16093,13
16097,6
16098,1
16101,14
16103,4
16107,16
16112,12
16114,10
16117,7
16119,9
16122,9
16123,5
16124,4
16125,11
16126,9
16128,4
16131,17
16139,5
16144,12
16150,18
16151,5
16152,6
16153,14
16156,2
16157,18
16160,10
16165,17
16168,3
16169,5
16171,17
16172,12
16175,5
16176,7
16181,2
16182,11
16188,2
16193,10
16198,10
16203,1
16209,1
16212,13
16215,17
16216,11
16220,5
16223,13
16224,18
16225,17
16235,15
16243,13
16246,10
16251,10
16255,1
16258,6
16260,5
16262,5
16265,16
16267,10
16271,7
16274,17
16275,7
16277,12
16278,3
16279,18
16280,5
16282,19
16284,20
16288,2
16289,16
16297,16
16298,3
16302,7
16303,1
16306,12
16307,8
16313,3
16315,10
16316,1
16320,3
16325,5
16326,16
16329,9
16335,15
16340,2
16345,7
16349,9
16352,1
16353,1
16361,7
16363,13
16364,2
16366,11
16369,12
16372,19
16376,9
16377,6
16380,10
16381,18
16383,19
16384,14
16385,14
16387,6
16391,17
16392,2
16396,7
16400,18
16405,12
16408,5
16413,5
16415,10
16416,12
16419,19
16421,3
16426,20
16434,7
16435,20
16437,13
16439,5
16449,17
16456,9
16457,10
16460,20
16461,9
16462,10
16466,5
16468,11
16473,2
16487,16
16489,10
16490,20
16494,20
16495,13
16500,19
16505,3
16506,1
16507,17
16512,16
16513,6
16515,17
16517,12
16518,4
16519,19
16521,18
16523,5
16524,7
16527,3
16530,19
16540,19
16544,15
16548,12
16551,11
16557,11
16562,1
16565,1
16570,18
16571,13
16573,17
16575,5
16577,19
16578,11
16579,6
16580,13
16587,5
16590,13
16591,8
16592,4
16593,7
16594,14
16601,11
16604,1
16605,6
16607,13
16616,12
16618,20
16621,13
16623,5
16624,6
16625,5
16626,12
16627,2
16629,13
16634,2
16635,10
16637,7
16639,20
16641,3
16644,18
16646,9
16648,4
16650,3
16653,9
16654,17
16656,11
16663,5
16664,2
16667,17
16670,8
16671,8
16681,17
16691,3
16692,9
16693,15
16709,2
16710,5
16711,2
16719,12
16720,13
16721,15
16724,3
16726,15
16728,20
16729,19
16731,5
16732,15
16742,20
16745,12
16747,19
16748,17
16749,4
16752,5
16756,7
16760,2
16761,2
16762,20
16766,19
16769,7
16770,4
16775,19
16776,17
16777,19
16778,13
16781,20
16784,19
16791,3
16792,18
16793,5
16795,5
16796,7
16799,10
16800,11
16810,17
16811,20
16817,18
16820,15
16828,17
16832,6
16833,12
16835,19
16840,5
16841,1
16844,18
16848,19
16852,16
16854,13
16858,10
16859,17
16864,15
16869,5
16870,15
16873,3
16874,7
16876,18
16878,11
16881,12
16885,18
16892,14
16895,15
16896,19
16898,17
16900,3
16907,12
16910,2
16913,4
16915,8
16916,17
16920,6
16921,6
16922,5
16926,19
16927,3
16928,15
16931,11
16933,13
16934,18
16940,10
16941,18
16944,8
16947,10
16948,11
16949,12
16952,7
16953,12
16954,5
16961,9
16964,14
16965,11
16966,10
16967,6
16970,16
16972,13
16974,6
16975,3
16976,2
16977,12
16979,10
16981,5
16985,5
16986,3
16988,17
16990,1
16992,3
17001,10
17004,5
17005,8
17008,5
17010,7
17016,2
17018,18
17020,9
17021,19
17030,11
17034,4
17041,11
17044,20
17045,16
17047,2
17048,19
17049,9
17053,2
17058,6
17059,7
17061,2
17063,1
17065,12
17068,19
17069,17
17070,5
17074,18
17079,1
17082,9
17086,5
17087,16
17093,9
17094,16
17095,16
17097,11
17099,11
17100,2
17101,18
17102,11
17104,9
17105,18
17107,17
17108,10
17110,16
17115,1
17116,14
17118,10
17120,15
17121,9
17124,12
17125,9
17130,12
17131,19
17132,3
17138,19
17139,6
17140,5
17155,10
17158,3
17160,13
17162,13
17165,18
17166,2
17169,14
17177,8
17183,4
17185,4
17186,19
17188,18
17189,6
17192,17
17193,18
17195,13
17196,19
17203,12
17206,6
17207,12
17209,3
17213,19
17215,13
17219,16
17222,19
17224,5
17227,10
17229,5
17235,13
17244,12
17245,5
17246,6
17247,20
17248,13
17250,7
17253,6
17257,12
17258,5
17259,2
17261,6
17263,7
17264,16
17265,13
17269,19
17273,10
17274,17
17281,12
17283,8
17288,20
17290,4
17298,10
17300,10
17301,2
17302,12
17304,1
17307,18
17310,5
17315,17
17320,16
17323,18
17325,12
17330,1
17333,7
17334,10
17336,6
17344,18
17345,19
17352,13
17354,16
17356,6
17357,14
17358,9
17360,4
17361,5
17366,6
17367,6
17368,16
17369,9
17370,5
17372,18
17377,14
17380,7
17384,11
17388,3
17389,2
17390,5
17392,20
17395,15
17396,4
17397,20
17401,15
17402,12
17408,3
17411,8
17419,10
17421,9
17425,7
17426,14
17432,3
17437,15
17441,14
17445,11
17448,18
17453,20
17456,1
17462,18
17466,12
17467,12
17469,2
17471,7
17479,17
17484,7
17487,6
17490,20
17491,20
17494,3
17497,17
17501,9
17506,7
17508,17
17509,10
17511,1
17516,5
17517,3
17524,20
17531,11
17532,19
17537,6
17539,11
17542,5
17547,19
17553,11
17556,7
17560,13
17564,13
17566,6
17570,7
17573,16
17574,17
17579,12
17581,9
17582,2
17584,17
17586,3
17587,13
17589,13
17593,12
17597,9
17600,7
17602,7
17604,5
17607,9
17611,5
17613,12
17614,14
17616,17
17619,19
17621,5
17628,2
17633,11
17634,4
17635,6
17646,17
17651,11
17652,7
17662,14
17664,6
17665,5
17670,16
17671,9
17675,18
17676,9
17677,17
17680,16
17686,15
17687,4
17688,13
17691,18
17693,11
17695,2
17697,11
17700,11
17706,4
17707,17
17709,16
17710,1
17715,6
17716,17
17717,14
17719,10
17720,3
17721,19
17722,4
17730,20
17732,12
17737,7
17738,4
17739,10
17743,20
17744,2
17745,13
17747,13
17748,12
17749,6
17752,18
17755,10
17757,20
17759,8
17763,13
17769,12
17771,3
17772,3
17775,8
17779,12
17781,11
17783,4
17790,13
17791,5
17792,20
17796,9
17799,11
17801,7
17803,9
17804,19
17808,20
17813,5
17815,17
17816,6
17819,5
17820,19
17821,5
17823,4
17824,16
17828,17
17830,5
17833,11
17839,4
17843,5
17848,10
17849,6
17850,19
17852,6
17853,13
17862,18
17863,5
17865,16
17871,3
17873,7
17874,9
17875,7
17877,4
17882,20
17885,1
17891,11
17893,7
17896,5
17899,9
17901,11
17903,3
17909,15
17910,16
17915,10
17917,5
17919,17
17924,20
17925,7
17928,17
17931,17
17935,19
17940,17
17941,20
17942,20
17947,11
17948,16
17949,6
17950,2
17953,16
17969,16
17978,18
17979,10
17980,18
17982,7
17984,2
17985,11
17989,14
17992,12
17994,2
17995,2
17998,16
18003,11
18004,17
18006,12
18011,7
18012,11
18013,20
18014,13
18017,19
18019,9
18021,15
18023,6
18025,20
18027,15
18029,14
18030,16
18032,3
18037,8
18038,19
18039,13
18041,3
18042,3
18043,7
18047,8
18049,17
18051,18
18052,4
18058,12
18059,14
18060,12
18064,5
18068,11
18069,2
18073,16
18074,15
18078,19
18081,18
18082,16
18085,17
18094,7
18098,7
18099,7
18102,18
18103,1
18107,15
18112,6
18115,12
18117,18
18123,7
18125,4
18126,19
18130,18
18132,8
18137,13
18139,17
18140,7
18142,17
18146,12
18148,5
18151,10
18156,9
18160,1
18161,11
18162,2
18163,5
18164,12
18167,16
18168,1
18171,12
18176,3
18179,4
18180,14
18182,1
18184,8
18185,4
18190,4
18191,10
18195,16
18196,12
18204,2
18205,13
18207,1
18211,6
18213,13
18215,10
18216,10
18220,9
18224,15
18229,1
18231,10
18232,8
18236,2
18239,18
18249,4
18250,7
18255,10
18258,5
18259,11
18271,17
18272,18
18278,1
18282,3
18284,20
18285,10
18288,2
18290,1
18292,15
18295,3
18296,2
18297,16
18300,17
18305,18
18306,2
18307,12
18308,2
18309,9
18319,2
18322,7
18329,9
18330,7
18331,10
18334,2
18336,12
18339,11
18344,17
18345,19
18346,6
18347,12
18353,18
18358,10
18359,2
18364,5
18369,15
18370,4
18373,11
18374,12
18375,18
18379,11
18382,19
18386,6
18388,11
18392,12
18397,2
18398,14
18399,1
18404,12
18409,4
18413,9
18414,9
18420,7
18424,5
18426,9
18428,12
18431,11
18436,5
18437,10
18439,6
18440,9
18441,11
18442,5
18448,10
18454,18
18455,11
18457,3
18458,1
18459,3
18462,5
18466,16
18472,11
18473,11
18474,7
18475,11
18478,2
18479,16
18480,11
18481,16
18489,9
18492,16
18493,8
18494,16
18500,5
18510,5
18516,20
18520,14
18522,20
18532,19
18533,1
18535,17
18536,2
18540,1
18542,13
18543,8
18545,15
18546,9
18549,9
18550,2
18551,15
18554,2
18557,8
18558,19
18565,12
18579,11
18581,5
18582,3
18591,2
18594,2
18595,18
18601,19
18603,12
18619,14
18620,3
18621,6
18626,15
18632,11
18635,13
18638,13
18639,12
18640,10
18642,18
18643,18
18646,14
18647,16
18653,2
18657,6
18659,10
18662,3
18663,6
18665,16
18669,1
18672,5
18674,8
18675,16
18677,10
18680,19
18690,19
18697,3
18698,19
18699,5
18700,6
18702,10
18706,13
18711,6
18712,11
18714,17
18716,13
18718,6
18721,16
18723,16
18726,7
18727,6
18728,4
18730,14
18735,2
18742,5
18748,18
18755,1
18758,12
18761,9
18768,7
18773,8
18776,5
18777,7
18784,19
18785,5
18789,10
18791,18
18793,2
18794,11
18797,13
18799,4
18800,9
18803,5
18804,5
18807,2
18811,19
18816,16
18817,3
18818,14
18819,4
18820,4
18822,17
18824,16
18826,19
18827,1
18828,2
18831,9
18833,20
18835,2
18837,6
18841,4
18843,14
18846,4
18850,3
18851,15
18852,7
18856,6
18859,20
18860,2
18861,5
18862,19
18876,10
18881,19
18882,4
18885,16
18886,12
18887,3
18888,6
18889,14
18890,17
18891,16
18892,19
18897,15
18901,10
18903,4
18904,15
18907,6
18911,7
18914,9
18918,10
18921,18
18925,16
18928,9
18929,7
18933,20
18945,1
18947,7
18948,17
18954,16
18957,12
18959,17
18960,10
18962,11
18964,18
18968,13
18971,13
18976,20
18979,16
18980,20
18983,16
18986,18
18991,9
18993,8
18994,19
18997,18
18999,12
19000,18
19001,3
19002,10
19012,13
19013,6
19016,19
19017,19
19020,11
19021,4
19023,11
19027,19
19028,6
19035,19
19036,18
19039,2
19043,19
19045,7
19047,19
19050,3
19054,11
19058,5
19062,20
19064,5
19067,11
19069,19
19071,2
19074,12
19077,2
19082,11
19088,4
19091,16
19093,16
19095,5
19097,12
19105,15
19108,5
19110,5
19112,18
19113,7
19114,19
19121,1
19122,7
19124,1
19125,8
19126,10
19130,6
19133,3
19134,16
19136,10
19138,11
19139,11
19142,7
19149,1
19153,16
19158,10
19161,17
19165,2
19168,14
19173,6
19174,13
19178,9
19179,2
19180,19
19181,2
19182,2
19184,17
19187,2
19189,7
19190,5
19196,10
19202,5
19205,1
19207,5
19208,10
19209,19
19218,9
19221,2
19223,3
19224,17
19225,6
19226,16
19230,15
19231,20
19232,19
19233,5
19238,20
19242,11
19246,5
19247,12
19248,9
19250,17
19251,9
19261,13
19262,9
19266,4
19276,14
19279,18
19280,18
19292,5
19295,18
19296,11
19299,5
19303,5
19305,17
19309,9
19310,18
19314,17
19315,19
19320,16
19322,6
19329,2
19338,3
19347,2
19348,3
19350,2
19356,20
19361,3
19362,17
19367,2
19373,1
19376,7
19382,17
19386,2
19388,6
19393,2
19394,18
19397,3
19398,9
19400,4
19407,18
19408,18
19412,9
19417,20
19419,5
19420,10
19421,3
19428,2
19429,18
19430,1
19437,3
19443,16
19448,5
19451,7
19454,6
19458,2
19461,19
19467,17
19468,17
19469,14
19470,19
19475,3
19478,15
19479,11
19480,11
19481,4
19485,19
19486,3
19487,10
19497,20
19499,11
19500,17
19501,12
19502,17
19503,17
19504,3
19505,5
19506,15
19509,9
19511,2
19512,15
19513,4
19518,19
19520,16
19523,8
19525,4
19529,8
19531,5
19532,17
19533,2
19535,4
19539,13
19540,8
19545,18
19546,9
19551,2
19554,3
19556,2
19557,5
19559,6
19563,3
19567,2
19568,3
19569,15
19573,6
19576,5
19581,3
19584,13
19585,5
19587,4
19588,13
19600,19
19601,3
19603,2
19605,3
19607,17
19608,11
19609,10
19612,5
19618,16
19619,4
19621,13
19622,3
19623,16
19624,5
19625,6
19628,4
19631,15
19632,1
19633,14
19634,5
19637,20
19638,19
19645,16
19646,11
19648,11
19651,11
19653,9
19655,6
19663,16
19669,13
19672,20
19673,13
19674,16
19681,12
19682,10
19683,6
19684,20
19686,2
19688,10
19689,6
19690,5
19691,2
19693,17
19694,9
19696,8
19698,12
19700,6
19702,1
19703,16
19706,2
19709,20
19710,14
19712,6
19715,10
19717,20
19723,3
19729,18
19732,9
19733,17
19737,2
19739,6
19740,14
19742,1
19744,5
19746,18
19752,9
19756,5
19759,19
19760,12
19762,5
19763,3
19765,2
19766,16
19767,15
19768,6
19774,4
19779,20
19783,2
19785,18
19787,8
19789,20
19790,7
19794,7
19801,2
19802,17
19805,12
19806,9
19808,19
19812,7
19820,5
19834,16
19836,13
19837,18
19838,17
19839,19
19841,20
19847,2
19850,11
19853,18
19854,6
19858,3
19860,7
19864,9
19865,5
19867,6
19870,4
19875,1
19878,16
19884,2
19886,18
19888,20
19889,7
19891,10
19895,18
19897,5
19899,7
19900,5
19902,14
19909,7
19918,18
19920,11
19921,6
19925,10
19936,11
19939,16
19941,13
19942,18
19948,7
19950,16
19958,3
19959,19
19960,5
19961,3
19965,8
19971,13
19972,11
19973,3
19974,2
19980,4
19981,11
19982,2
19990,5
19991,2
19992,15
19996,5
19997,4
19998,8
19999,20
20001,10
20003,8
20006,3
20014,6
20015,20
20017,4
20018,12
20019,19
20022,4
20025,15
20031,12
20032,19
20036,15
20037,13
20045,9
20046,18
20049,17
20054,3
20055,4
20060,12
20063,15
20064,5
20068,10
20070,13
20079,8
20081,6
20082,6
20083,18
20085,5
20087,5
20093,1
20095,10
20099,7
20105,4
20107,1
20108,2
20109,3
20110,16
20111,13
20113,10
20114,18
20115,17
20118,20
20119,4
20120,8
20122,10
20125,11
20127,6
20128,16
20132,5
20133,18
20134,3
20136,3
20139,7
20140,17
20144,10
20145,9
20149,10
20152,13
20153,4
20154,2
20155,2
20158,13
20161,12
20162,1
20168,10
20174,17
20183,13
20185,2
20189,14
20190,7
20191,19
20195,7
20196,7
20198,8
20202,17
20206,18
20207,19
20213,5
20214,13
20216,10
20218,18
20226,5
20228,10
20233,1
20234,11
20240,13
20242,11
20246,5
20248,6
20249,11
20250,13
20252,5
20253,16
20254,2
20259,7
20261,17
20264,10
20265,19
20268,10
20269,4
20270,14
20272,7
20274,14
20276,15
20285,9
20286,5
20290,16
20292,10
20293,6
20294,2
20296,19
20297,16
20304,9
20309,1
20310,6
20316,14
20319,7
20320,7
20323,11
20324,12
20329,10
20331,12
20332,17
20333,1
20334,5
20340,19
20341,12
20342,3
20344,16
20345,11
20346,17
20348,2
20353,11
20355,7
20360,14
20361,10
20362,15
20366,19
20368,19
20372,14
20376,5
20389,9
20396,20
20399,16
20402,1
20409,18
20411,11
20417,18
20421,12
20423,13
20426,14
20427,20
20428,4
20438,11
20443,13
20444,4
20445,11
20446,4
20447,5
20448,13
20449,19
20450,3
20451,15
20452,13
20454,13
20459,17
20461,6
20463,10
20464,4
20465,1
20466,2
20470,20
20472,18
20476,2
20478,5
20481,4
20486,7
20491,17
20496,18
20499,11
20509,7
20510,3
20514,15
20516,6
20518,18
20519,11
20520,18
20522,19
20523,6
20524,13
20528,18
20531,5
20533,11
20545,1
20548,17
20550,3
20551,2
20554,2
20556,5
20561,9
20567,9
20570,20
20575,18
20577,1
20579,7
20585,15
20587,11
20589,3
20590,4
20594,5
20595,6
20596,7
20601,2
20602,1
20603,3
20606,19
20608,12
20609,20
20614,14
20615,20
20616,12
20617,18
20618,17
20620,6
20621,4
20623,12
20624,7
20627,6
20628,19
20629,2
20630,19
20633,9
20634,14
20637,8
20640,1
20641,7
20643,20
20645,6
20646,11
20653,11
20654,1
20655,5
20656,5
20657,8
20662,18
20665,1
20667,10
20669,12
20670,2
20672,18
20673,17
20678,13
20687,7
20688,18
20691,20
20693,4
20699,14
20701,3
20705,6
20706,5
20707,16
20708,15
20709,10
20711,2
20714,9
20715,16
20720,20
20722,12
20723,13
20725,1
20731,10
20739,9
20741,2
20742,8
20751,3
20762,17
20763,10
20765,20
20767,16
20771,10
20778,16
20783,9
20784,16
20787,18
20789,9
20792,1
20797,6
20801,16
20802,8
20803,18
20810,12
20812,13
20816,6
20822,11
20826,1
20827,8
20829,20
20831,17
20841,5
20845,17
20848,2
20853,4
20855,6
20857,11
20861,17
20862,5
20864,20
20865,17
20866,1
20868,6
20870,16
20872,18
20873,12
20878,2
20880,4
20886,9
20887,11
20888,3
20889,1
20891,12
20893,5
20898,1
20899,3
20901,13
20906,11
20907,1
20908,5
20911,11
20914,14
20915,1
20916,3
20919,2
20922,18
20924,19
20928,20
20934,10
20943,11
20946,9
20950,10
20951,12
20952,2
20953,9
20954,20
20966,5
20968,17
20972,17
20973,12
20975,12
20981,19
20983,17
20985,3
20988,6
20989,6
20990,18
20991,10
20992,12
20993,12
20996,8
20997,19
20998,13
20999,10
21000,2
21002,3
21010,9
21013,19
21017,7
21018,18
21019,15
21023,7
21035,9
21038,17
21047,16
21055,17
21061,12
21063,17
21068,11
21073,18
21078,9
21079,15
21080,5
21081,12
21096,12
21097,18
21098,20
21103,7
21104,18
21106,9
21109,13
21111,19
21114,6
21120,5
21122,2
21123,17
21125,11
21126,12
21127,12
21128,16
21130,7
21132,9
21133,3
21134,18
21137,2
21138,12
21139,17
21140,5
21145,3
21147,3
21148,14
21151,10
21153,2
21154,17
21156,2
21163,12
21165,14
21166,2
21168,18
21178,11
21180,12
21188,13
21189,18
21190,9
21191,20
21192,20
21193,9
21196,12
21202,6
21203,18
21204,9
21209,7
21210,12
21211,1
21212,7
21213,8
21214,10
21215,13
21221,18
21222,1
21223,13
21224,4
21226,11
21232,2
21234,7
21236,9
21238,9
21241,20
21252,18
21255,4
21257,18
21259,3
21263,12
21264,3
21265,1
21267,4
21268,17
21269,18
21273,7
21279,17
21288,19
21297,6
21300,15
21302,7
21304,16
21308,18
21312,15
21314,1
21315,5
21317,17
21319,10
21321,18
21323,12
21329,11
21331,12
21333,5
21336,5
21338,10
21340,5
21342,6
21345,11
21346,4
21347,2
21354,17
21361,19
21362,5
21365,8
21366,18
21368,5
21369,17
21371,3
21377,17
21379,5
21384,2
21385,2
21386,20
21393,10
21397,1
21398,16
21404,3
21405,8
21409,8
21410,14
21413,7
21422,6
21424,10
21426,9
21427,18
21428,15
21429,6
21430,19
21432,13
21439,6
21441,11
21447,14
21449,4
21451,7
21453,6
21454,10
21457,13
21459,3
21465,5
21470,12
21472,6
21474,2
21477,7
21484,9
21487,14
21489,3
21491,7
21496,7
21502,12
21505,20
21509,5
21514,20
21515,18
21521,8
21522,1
21524,19
21525,4
21530,13
21533,10
21538,18
21542,1
21546,18
21547,6
21548,19
21552,18
21554,20
21564,12
21565,8
21569,9
21571,9
21577,18
21583,10
21585,9
21591,14
21592,2
21593,13
21594,12
21595,6
21602,4
21603,10
21605,5
21606,11
21607,5
21610,9
21614,3
21620,7
21621,20
21623,13
21625,14
21626,2
21627,3
21630,6
21634,18
21636,5
21637,5
21639,3
21641,5
21642,10
21644,13
21646,20
21661,7
21665,11
21666,4
21668,5
21675,14
21678,20
21679,11
21682,11
21687,18
21688,9
21691,10
21695,19
21696,9
21697,9
21698,11
21700,5
21707,2
21717,5
21718,7
21720,16
21721,7
21722,20
21723,16
21724,11
21727,15
21730,7
21735,1
21736,18
21737,3
21738,11
21742,2
21744,17
21747,1
21749,6
21753,9
21754,5
21755,9
21756,4
21757,9
21759,2
21760,6
21764,18
21765,3
21766,5
21767,11
21769,1
21771,19
21774,2
21775,14
21777,17
21778,7
21780,9
21781,9
21784,15
21791,15
21793,12
21796,5
21801,20
21803,5
21806,12
21809,2
21811,19
21813,1
21815,17
21816,10
21817,9
21819,2
21822,6
21824,20
21826,1
21827,12
21830,9
21833,14
21834,2
21835,12
21836,14
21840,1
21843,16
21845,4
21847,3
21850,10
21851,5
21852,10
21854,19
21855,12
21857,1
21858,7
21859,11
21864,7
21869,11
21873,16
21874,17
21875,10
21876,11
21881,18
21883,16
21884,2
21887,18
21891,18
21897,5
21901,20
21906,4
21911,12
21912,17
21913,19
21916,20
21922,17
21925,13
21928,11
21931,20
21938,10
21939,3
21941,14
21942,2
21945,18
21948,5
21954,8
21959,4
21961,16
21964,5
21969,13
21979,5
21981,20
21983,9
21984,11
21985,17
21986,13
21989,18
21990,5
21993,13
21994,7
21998,9
21999,19
22000,10
22002,10
22005,3
22006,15
22010,20
22011,8
22012,11
22015,7
22018,9
22026,11
22033,10
22036,5
22037,1
22040,12
22041,12
22043,5
22045,1
22047,1
22048,12
22049,11
22050,3
22051,15
22055,6
22057,12
22061,3
22062,5
22067,13
22068,16
22069,2
22072,13
22076,16
22077,7
22079,11
22080,7
22082,4
22083,4
22086,1
22089,5
22090,13
22098,15
22100,5
22102,12
22103,6
22107,10
22108,15
22111,10
22114,12
22117,5
22118,5
22119,2
22120,6
22122,2
22125,15
22128,13
22131,20
22132,18
22135,9
22138,20
22139,9
22142,17
22144,1
22147,7
22149,4
22151,3
22153,19
22160,2
22161,10
22166,2
22167,6
22169,16
22175,9
22178,12
22180,1
22181,20
22182,16
22186,19
22188,20
22189,13
22190,12
22195,6
22196,13
22201,9
22205,11
22207,10
22209,2
22213,7
22215,7
22217,3
22218,1
22223,14
22224,11
22225,12
22228,4
22229,3
22233,15
22234,5
22235,14
22239,11
22246,10
22247,11
22255,8
22256,8
22260,11
22261,10
22262,6
22270,9
22271,11
22276,15
22277,6
22278,19
22280,3
22282,13
22285,16
22287,5
22289,15
22299,11
22310,19
22311,9
22315,20
22317,1
22318,8
22323,19
22327,16
22328,9
22330,3
22337,12
22341,7
22348,11
22350,17
22351,10
22353,13
22354,15
22355,20
22356,19
22357,5
22358,5
22359,9
22367,17
22372,5
22374,18
22377,16
22380,16
22382,9
22384,7
22385,4
22387,3
22388,5
22395,6
22398,9
22400,17
22401,8
22403,11
22405,13
22408,9
22418,4
22422,18
22424,2
22427,5
22430,5
22431,9
22433,17
22434,6
22435,3
22446,7
22450,9
22451,12
22452,2
22453,9
22458,7
22461,9
22463,9
22465,12
22467,10
22468,14
22469,6
22470,6
22478,5
22479,17
22481,5
22486,12
22492,12
22495,16
22496,7
22499,3
22500,3
22501,10
22502,8
22505,2
22509,4
22510,10
22522,1
22524,1
22528,19
22530,5
22534,12
22536,16
22537,12
22538,18
22546,4
22547,11
22548,14
22552,7
22554,11
22556,10
22557,5
22559,9
22560,9
22562,10
22566,13
22567,13
22568,3
22569,13
22570,14
22578,5
22579,10
22581,6
22584,17
22585,12
22588,8
22591,3
22592,7
22594,14
22597,13
22598,2
22603,12
22605,6
22607,20
22608,7
22613,4
22618,11
22619,1
22624,2
22625,7
22629,19
22631,10
22633,16
22635,15
22638,1
22640,10
22641,5
22642,10
22643,2
22648,3
22652,18
22659,13
22660,2
22662,9
22665,20
22666,8
22667,3
22669,18
22672,20
22673,7
22675,20
22681,19
22685,7
22688,10
22690,13
22693,11
22696,18
22698,9
22701,9
22707,20
22709,16
22713,5
22717,11
22719,19
22721,20
22723,4
22728,13
22729,11
22732,6
22734,9
22741,12
22742,17
22744,2
22746,14
22750,20
22751,11
22752,11
22754,3
22760,7
22761,7
22764,19
22765,10
22766,15
22767,13
22768,5
22769,14
22775,9
22777,16
22779,5
22780,2
22782,19
22785,13
22786,19
22788,7
22790,1
22793,17
22795,6
22800,5
22803,2
22805,18
22810,2
22812,4
22815,13
22816,16
22818,15
22821,6
22822,15
22824,17
22826,13
22830,2
22833,6
22837,5
22839,16
22840,6
22841,20
22842,2
22847,11
22848,20
22853,6
22858,11
22863,13
22864,5
22868,14
22871,10
22872,5
22873,17
22874,12
22882,17
22883,19
22889,12
22890,12
22894,3
22898,7
22902,10
22903,8
22908,7
22912,3
22914,2
22916,3
22918,5
22919,10
22921,8
22922,20
22923,13
22925,6
22926,5
22930,3
22931,3
22933,2
22939,13
22941,5
22942,12
22943,4
22945,6
22948,19
22950,9
22958,16
22959,18
22962,4
22965,18
22966,11
22969,19
22971,17
22972,9
22975,2
22976,11
22977,17
22979,18
22981,3
22982,16
22983,17
22985,19
22986,6
22987,13
22988,11
22992,1
22993,11
22995,14
22997,15
23000,7
23008,19
23012,2
23015,1
23025,5
23026,5
23031,13
23032,19
23034,4
23036,20
23037,5
23038,6
23045,16
23049,15
23053,19
23059,6
23060,2
23062,7
23063,20
23065,3
23066,4
23068,5
23070,18
23072,12
23074,1
23075,17
23076,19
23077,11
23086,8
23087,4
23088,1
23090,2
23091,5
23092,5
23095,3
23096,13
23098,11
23101,10
23102,10
23106,12
23111,4
23112,3
23114,9
23124,15
23126,1
23127,19
23131,13
23133,15
23134,7
23135,11
23136,12
23138,18
23139,20
23142,18
23143,16
23152,12
23153,8
23156,6
23158,12
23159,2
23163,20
23167,16
23168,17
23169,8
23171,11
23174,1
23175,15
23177,12
23178,6
23187,10
23189,3
23194,1
23195,11
23196,4
23198,20
23199,7
23204,3
23209,18
23211,14
23216,7
23217,20
23218,2
23219,4
23220,7
23222,18
23225,4
23228,5
23231,4
23234,5
23235,8
23239,11
23244,13
23246,11
23247,2
23255,8
23256,18
23261,7
23265,6
23266,5
23276,4
23279,4
23282,1
23285,5
23286,6
23292,1
23294,9
23297,3
23300,10
23302,10
23304,10
23306,13
23307,11
23312,18
23315,7
23317,1
23319,5
23322,12
23323,20
23329,1
23331,2
23333,18
23336,20
23337,6
23339,8
23342,6
23344,12
23347,15
23349,5
23350,18
23354,9
23362,7
23363,3
23364,4
23367,15
23372,13
23375,18
23382,16
23389,11
23393,6
23396,7
23399,5
23401,6
23403,19
23406,5
23409,5
23414,6
23415,15
23416,11
23418,16
23422,1
23424,19
23426,5
23429,16
23436,5
23437,7
23442,4
23443,20
23444,15
23446,8
23448,11
23451,15
23456,1
23462,20
23465,19
23468,2
23470,17
23476,20
23477,7
23481,3
23484,16
23492,17
23497,2
23508,6
23512,2
23514,10
23515,10
23516,2
23524,12
23526,16
23528,3
23530,9
23533,11
23535,12
23545,15
23546,13
23553,5
23554,1
23555,11
23560,6
23563,7
23565,10
23569,14
23570,14
23572,5
23584,7
23585,11
23588,11
23591,18
23594,10
23600,1
23607,1
23613,14
23617,5
23621,5
23622,3
23623,11
23626,4
23627,18
23628,18
23629,6
23630,2
23631,4
23636,4
23637,19
23640,1
23642,2
23646,10
23648,14
23649,11
23650,17
23652,16
23653,18
23655,5
23657,9
23663,14
23665,11
23669,12
23673,7
23674,9
23678,5
23679,10
23680,11
23685,18
23687,11
23696,5
23697,18
23699,11
23700,5
23702,15
23703,6
23704,9
23706,2
23707,9
23708,10
23709,20
23710,15
23711,14
23713,20
23717,4
23718,19
23721,15
23726,10
23731,19
23739,11
23744,12
23745,12
23746,3
23748,8
23750,12
23752,12
23753,1
23759,3
23762,6
23765,13
23767,13
23771,11
23773,13
23774,4
23776,15
23779,5
23782,5
23783,8
23789,7
23792,10
23797,5
23809,14
23810,4
23813,17
23823,6
23825,6
23826,17
23829,20
23830,10
23831,20
23834,2
23837,9
23839,12
23840,19
23841,7
23843,11
23844,6
23846,13
23847,5
23848,4
23849,7
23851,13
23858,20
23859,11
23860,3
23864,6
23865,13
23870,10
23871,3
23875,3
23876,2
23888,18
23890,13
23891,3
23892,17
23893,5
23895,9
23898,7
23899,18
23901,20
23903,2
23906,9
23907,8
23908,8
23909,13
23911,15
23913,17
23915,14
23916,5
23917,10
23920,2
23922,20
23923,11
23924,5
23934,5
23935,3
23937,5
23938,5
23939,20
23940,7
23941,7
23944,13
23946,1
23949,17
23952,7
23954,1
23955,13
23956,12
23957,5
23960,2
23961,6
23962,9
23964,9
23966,1
23969,6
23971,19
23973,11
23976,10
23979,2
23983,6
23984,17
23986,19
23991,12
23992,2
23998,5
24000,1